<?xml version="1.0" encoding="UTF-8"?>
<!-- Generator: Adobe Illustrator 22.1.0, SVG Export Plug-In . SVG Version: 6.00 Build 0)  -->
<svg version="1.1" id="Calque_1" xmlns="http://www.w3.org/2000/svg" xmlns:xlink="http://www.w3.org/1999/xlink" x="0px" y="0px" viewBox="0 0 1132.8 149" style="enable-background:new 0 0 1132.8 149;" xml:space="preserve">
<style type="text/css">
	.st0{fill:#020203;}
</style>
<g>
	<path class="st0" d="M226,144.5h-48V81.8h16.3v48.9H226V144.5z"/>
	<path class="st0" d="M260,137.4l-2,5.1c-3.5,2.2-7.5,3.3-12,3.3c-8,0-15.5-5-15.5-14.3c0-10.4,9.8-16.7,26.2-16.7h3.1V114   c0-1,0-2-0.2-3.5c-0.3-2.5-2.3-4.6-5.8-4.6c-3.8,0-6,2.5-6.3,6.6l-15.4,0.1c0.1-11.3,10.2-17.8,22.4-17.8   c15.3,0,20.6,6.8,21.3,15.6c0.2,2.5,0.3,5.3,0.3,8.3v13.6c0,3.6,0.2,6.9,0.9,12.3h-16L260,137.4z M259.8,127.2V124   c-7.4-0.5-12.6,1.4-12.6,6.2c0,2.9,2.3,4.5,5.5,4.5C256,134.7,259.8,132.2,259.8,127.2z"/>
	<path class="st0" d="M367.8,138.5l-7.8,10.4c-5.8-3.5-8.6-4.5-12.9-4.5c-2.5,0-4.1,0.3-6.6,0.8c-2,0.5-4.1,0.6-6.4,0.6   c-19.5,0-32.1-12.5-32.1-32.6c0-20.2,12.5-32.7,32.1-32.7c19.5,0,32.1,12.5,32.1,32.7c0,7.6-2.6,14.8-8,19.8   C361.4,134,364.4,135.7,367.8,138.5z M334,133.8c9.4,0,15.3-7.4,15.3-20.6c0-13.3-5.9-20.7-15.3-20.7c-9.4,0-15.3,7.4-15.3,20.7   C318.7,126.4,324.6,133.8,334,133.8z"/>
	<path class="st0" d="M422.1,144.5h-16.3v-8.2l-4.4,6.6c-3,1.8-6.4,2.8-10.9,2.8c-10,0-16.1-5.6-17.2-12.3c-0.4-2.5-0.5-5.3-0.5-9.2   V96h16.3v24.7c0,1.5,0.1,4.2,0.4,6.6c0.5,4.6,2.7,7.4,7.9,7.4s8.3-4.8,8.3-11.3V96h16.3V144.5z"/>
	<path class="st0" d="M459.2,137.4l-2,5.1c-3.5,2.2-7.5,3.3-12,3.3c-8,0-15.5-5-15.5-14.3c0-10.4,9.8-16.7,26.2-16.7h3.1V114   c0-1,0-2-0.2-3.5c-0.3-2.5-2.3-4.6-5.8-4.6c-3.8,0-6,2.5-6.3,6.6l-15.4,0.1c0.1-11.3,10.2-17.8,22.4-17.8   c15.3,0,20.6,6.8,21.3,15.6c0.2,2.5,0.3,5.3,0.3,8.3v13.6c0,3.6,0.2,6.9,0.9,12.3h-16L459.2,137.4z M459.1,127.2V124   c-7.4-0.5-12.6,1.4-12.6,6.2c0,2.9,2.3,4.5,5.5,4.5C455.2,134.7,459.1,132.2,459.1,127.2z"/>
	<path class="st0" d="M536.1,144.5h-16.3v-7.1l-3.6,5.4c-2.7,2-7.4,3-12.3,3c-13.2,0-21.3-10.1-21.3-24.4c0-17.3,10.5-26.6,23-26.6   c4,0,8.7,0.9,11.2,2.4l3.2,5.2V77.8h16.3V144.5z M519.8,120.9v-2.1c0-9.7-5-13-9.9-13c-6.4,0-10.7,4.8-10.7,14.7   c0,9.1,4.5,14.2,10.3,14.2C515.4,134.7,519.8,131.1,519.8,120.9z"/>
	<path class="st0" d="M579,95v13.3c-12.3-0.8-16.7,3.7-16.7,18.3v17.8H546V96h16.3v9.8l3.5-6.8c2.6-2.9,6.4-4.3,9.5-4.3   C576.8,94.7,577.8,94.8,579,95z"/>
	<path class="st0" d="M611.4,137.4l-2,5.1c-3.5,2.2-7.5,3.3-12,3.3c-8,0-15.5-5-15.5-14.3c0-10.4,9.8-16.7,26.2-16.7h3.1V114   c0-1,0-2-0.2-3.5c-0.3-2.5-2.3-4.6-5.8-4.6c-3.8,0-6,2.5-6.3,6.6l-15.4,0.1c0.1-11.3,10.2-17.8,22.4-17.8   c15.3,0,20.6,6.8,21.3,15.6c0.2,2.5,0.3,5.3,0.3,8.3v13.6c0,3.6,0.2,6.9,0.9,12.3h-16L611.4,137.4z M611.2,127.2V124   c-7.4-0.5-12.6,1.4-12.6,6.2c0,2.9,2.3,4.5,5.5,4.5C607.4,134.7,611.2,132.2,611.2,127.2z"/>
	<path class="st0" d="M657,124.4c0,1.6,0,3.5,0.1,4.7c0.4,4.9,1.9,6,9.6,5.6V145c-3.2,0.5-6.2,0.8-9.6,0.8   c-12.1,0-15.7-3.7-16.3-11.2c-0.2-2.8-0.2-5.1-0.2-7.8v-20.2H633V96.4h7.7V83.8H657v12.5h10.7v10.2H657V124.4z"/>
	<path class="st0" d="M722,144.5h-16.3v-8.2l-4.4,6.6c-3,1.8-6.4,2.8-10.9,2.8c-10,0-16.1-5.6-17.2-12.3c-0.4-2.5-0.5-5.3-0.5-9.2   V96h16.3v24.7c0,1.5,0.1,4.2,0.4,6.6c0.5,4.6,2.7,7.4,7.9,7.4s8.3-4.8,8.3-11.3V96H722V144.5z"/>
	<path class="st0" d="M764.9,95v13.3c-12.3-0.8-16.7,3.7-16.7,18.3v17.8h-16.3V96h16.3v9.8l3.5-6.8c2.6-2.9,6.4-4.3,9.5-4.3   C762.7,94.7,763.7,94.8,764.9,95z"/>
	<path class="st0" d="M817.2,124.3h-33.8c0.8,8.1,4.4,10.4,9,10.4s7.4-2.4,8.1-6.1h16.1c-2.8,11-11.9,17.2-24.3,17.2   c-13.9,0-25-8.3-25-25.3c0-14.2,9.7-25.7,25.9-25.7s24.3,12.3,24.3,24.9C817.5,121.1,817.4,122.7,817.2,124.3z M784,114.4h16.4   c-0.9-5.7-3.7-8.5-8.1-8.5C788.1,105.8,785.1,108.4,784,114.4z"/>
	<path class="st0" d="M891.5,144.5h-16.3v-7.1l-3.6,5.4c-2.7,2-7.4,3-12.3,3c-13.2,0-21.3-10.1-21.3-24.4c0-17.3,10.5-26.6,23-26.6   c4,0,8.7,0.9,11.2,2.4l3.2,5.2V77.8h16.3V144.5z M875.1,120.9v-2.1c0-9.7-5-13-9.9-13c-6.4,0-10.7,4.8-10.7,14.7   c0,9.1,4.5,14.2,10.3,14.2C870.8,134.7,875.1,131.1,875.1,120.9z"/>
	<path class="st0" d="M949.6,144.5h-16.3v-8.2l-4.4,6.6c-3,1.8-6.4,2.8-10.9,2.8c-10,0-16.1-5.6-17.2-12.3c-0.4-2.5-0.5-5.3-0.5-9.2   V96h16.3v24.7c0,1.5,0.1,4.2,0.4,6.6c0.5,4.6,2.7,7.4,7.9,7.4s8.3-4.8,8.3-11.3V96h16.3V144.5z"/>
	<path class="st0" d="M1016.3,144.5l-22.8-41.4c0.5,6.4,0.5,11.9,0.5,15.5v25.9h-16.3V81.8h20.3l23.8,43.2   c-0.5-6.4-0.5-12.8-0.5-16.4V81.8h16.3v62.7H1016.3z"/>
	<path class="st0" d="M1094.7,124.3h-33.8c0.8,8.1,4.4,10.4,9,10.4c4.6,0,7.4-2.4,8.1-6.1h16.1c-2.8,11-11.9,17.2-24.3,17.2   c-13.9,0-25-8.3-25-25.3c0-14.2,9.7-25.7,25.9-25.7s24.3,12.3,24.3,24.9C1095,121.1,1094.9,122.7,1094.7,124.3z M1061.5,114.4h16.4   c-0.9-5.7-3.7-8.5-8.1-8.5C1065.6,105.8,1062.6,108.4,1061.5,114.4z"/>
	<path class="st0" d="M1121.7,124.4c0,1.6,0,3.5,0.1,4.7c0.4,4.9,1.9,6,9.6,5.6V145c-3.2,0.5-6.2,0.8-9.6,0.8   c-12.1,0-15.7-3.7-16.3-11.2c-0.2-2.8-0.2-5.1-0.2-7.8v-20.2h-7.7V96.4h7.7V83.8h16.3v12.5h10.7v10.2h-10.7V124.4z"/>
</g>
<g>
	<path class="st0" d="M0,30.6C7.3,17.9,17.8,7.3,30.3,0H0V30.6"/>
	<path class="st0" d="M0,113.8v30.6h30.3C17.7,137.1,7.3,126.5,0,113.8"/>
	<path class="st0" d="M142.9,113.7c-7.3,12.8-17.8,23.4-30.4,30.8h30.4V113.7z"/>
	<path class="st0" d="M112.6,0c12.6,7.4,23.1,18,30.4,30.7V0H112.6z"/>
	<path class="st0" d="M59.1,37.4h52.7v11.4H92.6l-1.7,23.7c-0.3,4.1-0.4,7.6-0.4,10.6c0,7.2,0.9,11.6,2.6,13.2   c1.8,1.6,4,2.3,6.5,2.3c5.3,0,8.4-3.1,9.4-9.4h3c-1.8,14.4-7.9,21.6-18.3,21.6c-4.8,0-8.8-1.4-11.8-4.2c-2.9-2.8-4.3-7-4.3-12.5   c0-3.6,0.5-11.3,1.7-23l2.3-22.5H64c-1.2,18.9-2.6,32.7-4.2,41.4c-1.6,8.7-3.4,14.3-5.3,16.9c-1.9,2.5-4.6,3.8-7.9,3.8   c-2.5,0-4.7-0.7-6.5-2.1c-1.7-1.4-2.5-3.2-2.5-5.5c0-2.2,1.5-5.1,4.4-8.9c4.3-5.5,7.6-11.3,9.7-17.2c2.1-6,3.8-15.4,4.9-28.4H51   c-4.5,0-8,1-10.4,2.9c-2.4,1.9-4.6,4.5-6.7,8.1h-3c1.6-5.6,3.7-10.1,6.2-13.7c2.5-3.6,5.1-5.9,7.8-7C47.5,37.9,52.2,37.4,59.1,37.4    M71.4,4.8C34.6,4.8,4.7,35,4.7,72.2c0,37.2,29.9,67.5,66.7,67.5s66.8-30.3,66.8-67.5C138.2,35,108.3,4.8,71.4,4.8 M0,30.6"/>
</g>
<script xmlns=""/></svg>